{
  "project_info": {
    "project_number": "910211275096",
    "firebase_url": "https://th-smartmath.firebaseio.com",
    "project_id": "th-smartmath",
    "storage_bucket": "th-smartmath.appspot.com"
  },
  "client": [
    {
      "client_info": {
        "mobilesdk_app_id": "1:910211275096:android:2867d03a1828ba70adad2d",
        "android_client_info": {
          "package_name": "com.example.smart_math"
        }
      },
      "oauth_client": [
        {
          "client_id": "910211275096-4kn8dhvrpdhfeg3t7sctvubpph6lssfu.apps.googleusercontent.com",
          "client_type": 3
        }
      ],
      "api_key": [
        {
          "current_key": "AIzaSyCpMLMusK-g9A_xRDKPZ7ixxlDhDTmXGdw"
        }
      ],
      "services": {
        "appinvite_service": {
          "other_platform_oauth_client": [
            {
              "client_id": "910211275096-4kn8dhvrpdhfeg3t7sctvubpph6lssfu.apps.googleusercontent.com",
              "client_type": 3
            },
            {
              "client_id": "910211275096-43l0ur3p4gvv88sbq0701b563if6iubk.apps.googleusercontent.com",
              "client_type": 2,
              "ios_info": {
                "bundle_id": "com.example.smartMath"
              }
            }
          ]
        }
      }
    }
  ],
  "configuration_version": "1"
}